Country,State,City,Zip Code,Seaport Name,Seaport Code
United States,California,Long Beach,90802,Port of Long Beach Cruise Terminal,2704
United States,California,San Pedro,90731,Port of Los Angeles Cruise Terminal,2709
United States,Florida,Cape Canaveral,32920,Cape Canaveral Cruise Terminal,1816
United States,Florida,Fort Lauderdale,33316,Port Everglades Cruise Terminal,5203
United States,Florida,Miami,33132,Port of Miami Cruise Terminal,5201
United States,Florida,Riviera Beach,33404,Port of Palm Beach Cruise Terminal,5204
United States,Florida,Tampa,33602,Port Tampa Bay Cruise Terminal,1801
United States,Massachusetts,Boston,02210,Port of Boston Cruise Port,401
United States,New Jersey,Bayonne,07002,Cape Liberty Cruise Terminal,NJCT
United States,New York,Brooklyn,11231,Port of Brooklyn Cruise Terminal,BKCT
United States,New York,New York City,10019,Port of Manhattan Cruise Terminal,1001
United States,Texas,Galveston,77550,Port of Galveston Cruise Terminal,5310
United States,Texas,Pasadena,77586,Port of Houston/Bayport  Cruise Terminal,5301
